Copyright 1986-2015 Xilinx, Inc. All Rights Reserved.
-----------------------------------------------------------------------------------------
| Tool Version      : Vivado v.2015.2 (win64) Build 1266856 Fri Jun 26 16:35:25 MDT 2015
| Date              : Sun Sep 20 22:12:27 2015
| Host              : wb running 64-bit Service Pack 1  (build 7601)
| Command           : report_clock_utilization -file ez_p2s_clock_utilization_routed.rpt
| Design            : ez_p2s
| Device            : 7a35t-csg324
| Speed File        : -1  PRODUCTION 1.14 2014-09-11
| Temperature Grade : C
-----------------------------------------------------------------------------------------

Clock Utilization Report

Table of Contents
-----------------
1. Clock Primitive Utilization
2. Details of Global Clocks
3. Details of Regional Clocks
4. Details of Multi-Regional Clocks
5. Details of I/O Clocks
6. Details of Local Clocks
7. Clock Regions : Key Resource Utilization
8. Net wise resources used in clock region X0Y0
9. Net wise resources used in clock region X1Y0
10. Net wise resources used in clock region X0Y1
11. Net wise resources used in clock region X1Y1

1. Clock Primitive Utilization
------------------------------

+-------+------+-----------+-----------+
| Type  | Used | Available | Num Fixed |
+-------+------+-----------+-----------+
| BUFG  |    2 |        32 |         0 |
| BUFH  |    0 |        72 |         0 |
| BUFIO |    0 |        20 |         0 |
| MMCM  |    0 |         5 |         0 |
| PLL   |    0 |         5 |         0 |
| BUFR  |    0 |        20 |         0 |
| BUFMR |    0 |        10 |         0 |
+-------+------+-----------+-----------+


2. Details of Global Clocks
---------------------------

+-------+------------------------+-------------------+--------------+-------+
|       |                        |                   |   Num Loads  |       |
+-------+------------------------+-------------------+------+-------+-------+
| Index | BUFG Cell              | Net Name          | BELs | Sites | Fixed |
+-------+------------------------+-------------------+------+-------+-------+
|     1 | fxclk_IBUF_BUFG_inst   | fxclk_IBUF_BUFG   |   33 |     9 |    no |
|     2 | led1_OBUF_BUFG[9]_inst | led1_OBUF_BUFG[9] |   50 |    26 |    no |
+-------+------------------------+-------------------+------+-------+-------+


3. Details of Regional Clocks
-----------------------------

4. Details of Multi-Regional Clocks
-----------------------------------

5. Details of I/O Clocks
------------------------

6. Details of Local Clocks
--------------------------

+-------+---------------------------------------+-------------------------------------------+--------------+-------+
|       |                                       |                                           |   Num Loads  |       |
+-------+---------------------------------------+-------------------------------------------+------+-------+-------+
| Index | Local Clk Src                         | Net Name                                  | BELs | Sites | Fixed |
+-------+---------------------------------------+-------------------------------------------+------+-------+-------+
|     1 | nolabel_line42/buffer_reg[10]_LDC_i_1 | nolabel_line42/buffer_reg[10]_LDC_i_1_n_0 |    2 |     2 |    no |
|     2 | nolabel_line42/buffer_reg[11]_LDC_i_1 | nolabel_line42/buffer_reg[11]_LDC_i_1_n_0 |    2 |     2 |    no |
|     3 | nolabel_line42/buffer_reg[12]_LDC_i_1 | nolabel_line42/buffer_reg[12]_LDC_i_1_n_0 |    2 |     2 |    no |
|     4 | nolabel_line42/buffer_reg[13]_LDC_i_1 | nolabel_line42/buffer_reg[13]_LDC_i_1_n_0 |    2 |     2 |    no |
|     5 | nolabel_line42/buffer_reg[14]_LDC_i_1 | nolabel_line42/buffer_reg[14]_LDC_i_1_n_0 |    2 |     2 |    no |
|     6 | nolabel_line42/buffer_reg[15]_LDC_i_1 | nolabel_line42/buffer_reg[15]_LDC_i_1_n_0 |    2 |     2 |    no |
|     7 | nolabel_line42/buffer_reg[16]_LDC_i_1 | nolabel_line42/buffer_reg[16]_LDC_i_1_n_0 |    2 |     2 |    no |
|     8 | nolabel_line42/buffer_reg[17]_LDC_i_1 | nolabel_line42/buffer_reg[17]_LDC_i_1_n_0 |    2 |     2 |    no |
+-------+---------------------------------------+-------------------------------------------+------+-------+-------+


7. Clock Regions : Key Resource Utilization
-------------------------------------------

+-------------------+--------------+--------------+--------------+--------------+--------------+--------------+--------------+--------------+--------------+--------------+--------------+--------------+--------------+--------------+--------------+
|                   | Global Clock |     BUFRs    |    BUFMRs    |    BUFIOs    |     MMCM     |      PLL     |      GT      |      PCI     |    ILOGIC    |    OLOGIC    |      FF      |     LUTM     |    RAMB18    |    RAMB36    |    DSP48E1   |
+-------------------+------+-------+------+-------+------+-------+------+-------+------+-------+------+-------+------+-------+------+-------+------+-------+------+-------+------+-------+------+-------+------+-------+------+-------+------+-------+
| Clock Region Name | Used | Avail | Used | Avail | Used | Avail | Used | Avail | Used | Avail | Used | Avail | Used | Avail | Used | Avail | Used | Avail | Used | Avail | Used | Avail | Used | Avail | Used | Avail | Used | Avail | Used | Avail |
+-------------------+------+-------+------+-------+------+-------+------+-------+------+-------+------+-------+------+-------+------+-------+------+-------+------+-------+------+-------+------+-------+------+-------+------+-------+------+-------+
| X0Y0              |    1 |    12 |    0 |     4 |    0 |     2 |    0 |     4 |    0 |     1 |    0 |     1 |    0 |     0 |    0 |     0 |    0 |    50 |    0 |    50 |   24 |  9600 |    0 |  1600 |    0 |    20 |    0 |    10 |    0 |    20 |
| X1Y0              |    2 |    12 |    0 |     4 |    0 |     2 |    0 |     4 |    0 |     1 |    0 |     1 |    0 |     0 |    0 |     0 |    0 |    50 |    0 |    50 |   54 | 12000 |    0 |  1800 |    0 |    40 |    0 |    20 |    0 |    20 |
| X0Y1              |    1 |    12 |    0 |     4 |    0 |     2 |    0 |     4 |    0 |     1 |    0 |     1 |    0 |     0 |    0 |     0 |    0 |    50 |    0 |    50 |    0 |  9600 |    0 |  1600 |    0 |    20 |    0 |    10 |    0 |    20 |
| X1Y1              |    1 |    12 |    0 |     4 |    0 |     2 |    0 |     4 |    0 |     1 |    0 |     1 |    0 |     0 |    0 |     0 |    0 |    50 |    0 |    50 |   12 | 12000 |    0 |  1800 |    0 |    40 |    0 |    20 |    0 |    20 |
| X0Y2              |    0 |    12 |    0 |     4 |    0 |     2 |    0 |     4 |    0 |     1 |    0 |     1 |    0 |     0 |    0 |     0 |    0 |    50 |    0 |    50 |    0 | 14400 |    0 |  1600 |    0 |    20 |    0 |    10 |    0 |    20 |
| X1Y2              |    0 |    12 |    0 |     0 |    0 |     0 |    0 |     0 |    0 |     0 |    0 |     0 |    0 |     5 |    0 |     1 |    0 |     0 |    0 |     0 |    0 |  7600 |    0 |  1200 |    0 |    10 |    0 |     5 |    0 |    20 |
+-------------------+------+-------+------+-------+------+-------+------+-------+------+-------+------+-------+------+-------+------+-------+------+-------+------+-------+------+-------+------+-------+------+-------+------+-------+------+-------+
* RAMB36 site can be used as two RAMB18/FIFO18 sites.


8. Net wise resources used in clock region X0Y0
-----------------------------------------------

+-------------+-------------+-------+-----------+----------+---------+-----------+---------+---------+-----+-------+----------+-------------------+
| Source Type | BUFHCE Site | Fixed | MMCM Pins | PLL Pins | GT Pins | BRAM Pins | ILOGICs | OLOGICs | FFs | LUTMs | DSP48E1s |   Clock Net Name  |
+-------------+-------------+-------+-----------+----------+---------+-----------+---------+---------+-----+-------+----------+-------------------+
| BUFG        | BUFHCE_X0Y8 |   no  |         0 |        0 |       0 |         0 |       0 |       0 |  16 |     0 |        0 | led1_OBUF_BUFG[9] |
+-------------+-------------+-------+-----------+----------+---------+-----------+---------+---------+-----+-------+----------+-------------------+


9. Net wise resources used in clock region X1Y0
-----------------------------------------------

+-------------+-------------+-------+-----------+----------+---------+-----------+---------+---------+-----+-------+----------+-------------------+
| Source Type | BUFHCE Site | Fixed | MMCM Pins | PLL Pins | GT Pins | BRAM Pins | ILOGICs | OLOGICs | FFs | LUTMs | DSP48E1s |   Clock Net Name  |
+-------------+-------------+-------+-----------+----------+---------+-----------+---------+---------+-----+-------+----------+-------------------+
| BUFG        | BUFHCE_X1Y8 |   no  |         0 |        0 |       0 |         0 |       0 |       0 |  21 |     0 |        0 | fxclk_IBUF_BUFG   |
| BUFG        | BUFHCE_X1Y9 |   no  |         0 |        0 |       0 |         0 |       0 |       0 |  33 |     0 |        0 | led1_OBUF_BUFG[9] |
+-------------+-------------+-------+-----------+----------+---------+-----------+---------+---------+-----+-------+----------+-------------------+


10. Net wise resources used in clock region X0Y1
------------------------------------------------

+-------------+-------------+-------+-----------+----------+---------+-----------+---------+---------+-----+-------+----------+----------------+
| Source Type | BUFHCE Site | Fixed | MMCM Pins | PLL Pins | GT Pins | BRAM Pins | ILOGICs | OLOGICs | FFs | LUTMs | DSP48E1s | Clock Net Name |
+-------------+-------------+-------+-----------+----------+---------+-----------+---------+---------+-----+-------+----------+----------------+


11. Net wise resources used in clock region X1Y1
------------------------------------------------

+-------------+--------------+-------+-----------+----------+---------+-----------+---------+---------+-----+-------+----------+-----------------+
| Source Type | BUFHCE Site  | Fixed | MMCM Pins | PLL Pins | GT Pins | BRAM Pins | ILOGICs | OLOGICs | FFs | LUTMs | DSP48E1s |  Clock Net Name |
+-------------+--------------+-------+-----------+----------+---------+-----------+---------+---------+-----+-------+----------+-----------------+
| BUFG        | BUFHCE_X1Y20 |   no  |         0 |        0 |       0 |         0 |       0 |       0 |  12 |     0 |        0 | fxclk_IBUF_BUFG |
+-------------+--------------+-------+-----------+----------+---------+-----------+---------+---------+-----+-------+----------+-----------------+



# Location of BUFG Primitives 
set_property LOC BUFGCTRL_X0Y1 [get_cells fxclk_IBUF_BUFG_inst]
set_property LOC BUFGCTRL_X0Y0 [get_cells led1_OBUF_BUFG[9]_inst]

# Location of IO Clock Primitives

# Location of MMCM Clock Primitives

# Location of BUFH Clock Primitives

# Location of BUFR Clock Primitives

# Location of BUFMR Clock Primitives

# Location of PLL Clock Primitives

# Location of IO Primitives which is load of clock spine
set_property LOC IOB_X0Y74 [get_cells led1_OBUF[9]_inst]

# Location of clock ports
set_property LOC IOB_X0Y24 [get_ports fxclk]

# Clock net "fxclk_IBUF_BUFG" driven by instance "fxclk_IBUF_BUFG_inst" located at site "BUFGCTRL_X0Y1"
#startgroup
create_pblock {CLKAG_fxclk_IBUF_BUFG}
add_cells_to_pblock [get_pblocks  {CLKAG_fxclk_IBUF_BUFG}] [get_cells -filter { PRIMITIVE_GROUP != I/O && IS_PRIMITIVE==1 && PRIMITIVE_LEVEL !=INTERNAL } -of_object [get_pins -filter {DIRECTION==IN} -of_objects [get_nets -hierarchical -filter {PARENT=="fxclk_IBUF_BUFG"}]]]
resize_pblock [get_pblocks {CLKAG_fxclk_IBUF_BUFG}] -add {CLOCKREGION_X1Y0:CLOCKREGION_X1Y0 CLOCKREGION_X1Y1:CLOCKREGION_X1Y1}
#endgroup

# Clock net "led1_OBUF_BUFG[9]" driven by instance "led1_OBUF_BUFG[9]_inst" located at site "BUFGCTRL_X0Y0"
#startgroup
create_pblock {CLKAG_led1_OBUF_BUFG[9]}
add_cells_to_pblock [get_pblocks  {CLKAG_led1_OBUF_BUFG[9]}] [get_cells -filter { PRIMITIVE_GROUP != I/O && IS_PRIMITIVE==1 && PRIMITIVE_LEVEL !=INTERNAL && NAME!=led1_OBUF[9]_inst} -of_object [get_pins -filter {DIRECTION==IN} -of_objects [get_nets -hierarchical -filter {PARENT=="led1_OBUF_BUFG[9]"}]]]
resize_pblock [get_pblocks {CLKAG_led1_OBUF_BUFG[9]}] -add {CLOCKREGION_X0Y0:CLOCKREGION_X0Y0 CLOCKREGION_X1Y0:CLOCKREGION_X1Y0}
#endgroup

# Clock net "nolabel_line42/buffer_reg[10]_LDC_i_1_n_0" driven by instance "nolabel_line42/buffer_reg[10]_LDC_i_1" located at site "SLICE_X0Y22"
#startgroup
create_pblock {CLKAG_nolabel_line42/buffer_reg[10]_LDC_i_1_n_0}
add_cells_to_pblock [get_pblocks  {CLKAG_nolabel_line42/buffer_reg[10]_LDC_i_1_n_0}] [get_cells -filter { PRIMITIVE_GROUP != I/O && IS_PRIMITIVE==1 && PRIMITIVE_LEVEL !=INTERNAL } -of_object [get_pins -filter {DIRECTION==IN} -of_objects [get_nets -hierarchical -filter {PARENT=="nolabel_line42/buffer_reg[10]_LDC_i_1_n_0"}]]]
resize_pblock [get_pblocks {CLKAG_nolabel_line42/buffer_reg[10]_LDC_i_1_n_0}] -add {CLOCKREGION_X0Y0:CLOCKREGION_X0Y0}
#endgroup

# Clock net "nolabel_line42/buffer_reg[11]_LDC_i_1_n_0" driven by instance "nolabel_line42/buffer_reg[11]_LDC_i_1" located at site "SLICE_X0Y23"
#startgroup
create_pblock {CLKAG_nolabel_line42/buffer_reg[11]_LDC_i_1_n_0}
add_cells_to_pblock [get_pblocks  {CLKAG_nolabel_line42/buffer_reg[11]_LDC_i_1_n_0}] [get_cells -filter { PRIMITIVE_GROUP != I/O && IS_PRIMITIVE==1 && PRIMITIVE_LEVEL !=INTERNAL } -of_object [get_pins -filter {DIRECTION==IN} -of_objects [get_nets -hierarchical -filter {PARENT=="nolabel_line42/buffer_reg[11]_LDC_i_1_n_0"}]]]
resize_pblock [get_pblocks {CLKAG_nolabel_line42/buffer_reg[11]_LDC_i_1_n_0}] -add {CLOCKREGION_X0Y0:CLOCKREGION_X0Y0}
#endgroup

# Clock net "nolabel_line42/buffer_reg[12]_LDC_i_1_n_0" driven by instance "nolabel_line42/buffer_reg[12]_LDC_i_1" located at site "SLICE_X0Y22"
#startgroup
create_pblock {CLKAG_nolabel_line42/buffer_reg[12]_LDC_i_1_n_0}
add_cells_to_pblock [get_pblocks  {CLKAG_nolabel_line42/buffer_reg[12]_LDC_i_1_n_0}] [get_cells -filter { PRIMITIVE_GROUP != I/O && IS_PRIMITIVE==1 && PRIMITIVE_LEVEL !=INTERNAL } -of_object [get_pins -filter {DIRECTION==IN} -of_objects [get_nets -hierarchical -filter {PARENT=="nolabel_line42/buffer_reg[12]_LDC_i_1_n_0"}]]]
resize_pblock [get_pblocks {CLKAG_nolabel_line42/buffer_reg[12]_LDC_i_1_n_0}] -add {CLOCKREGION_X0Y0:CLOCKREGION_X0Y0}
#endgroup

# Clock net "nolabel_line42/buffer_reg[13]_LDC_i_1_n_0" driven by instance "nolabel_line42/buffer_reg[13]_LDC_i_1" located at site "SLICE_X1Y18"
#startgroup
create_pblock {CLKAG_nolabel_line42/buffer_reg[13]_LDC_i_1_n_0}
add_cells_to_pblock [get_pblocks  {CLKAG_nolabel_line42/buffer_reg[13]_LDC_i_1_n_0}] [get_cells -filter { PRIMITIVE_GROUP != I/O && IS_PRIMITIVE==1 && PRIMITIVE_LEVEL !=INTERNAL } -of_object [get_pins -filter {DIRECTION==IN} -of_objects [get_nets -hierarchical -filter {PARENT=="nolabel_line42/buffer_reg[13]_LDC_i_1_n_0"}]]]
resize_pblock [get_pblocks {CLKAG_nolabel_line42/buffer_reg[13]_LDC_i_1_n_0}] -add {CLOCKREGION_X0Y0:CLOCKREGION_X0Y0}
#endgroup

# Clock net "nolabel_line42/buffer_reg[14]_LDC_i_1_n_0" driven by instance "nolabel_line42/buffer_reg[14]_LDC_i_1" located at site "SLICE_X1Y22"
#startgroup
create_pblock {CLKAG_nolabel_line42/buffer_reg[14]_LDC_i_1_n_0}
add_cells_to_pblock [get_pblocks  {CLKAG_nolabel_line42/buffer_reg[14]_LDC_i_1_n_0}] [get_cells -filter { PRIMITIVE_GROUP != I/O && IS_PRIMITIVE==1 && PRIMITIVE_LEVEL !=INTERNAL } -of_object [get_pins -filter {DIRECTION==IN} -of_objects [get_nets -hierarchical -filter {PARENT=="nolabel_line42/buffer_reg[14]_LDC_i_1_n_0"}]]]
resize_pblock [get_pblocks {CLKAG_nolabel_line42/buffer_reg[14]_LDC_i_1_n_0}] -add {CLOCKREGION_X0Y0:CLOCKREGION_X0Y0}
#endgroup

# Clock net "nolabel_line42/buffer_reg[15]_LDC_i_1_n_0" driven by instance "nolabel_line42/buffer_reg[15]_LDC_i_1" located at site "SLICE_X2Y21"
#startgroup
create_pblock {CLKAG_nolabel_line42/buffer_reg[15]_LDC_i_1_n_0}
add_cells_to_pblock [get_pblocks  {CLKAG_nolabel_line42/buffer_reg[15]_LDC_i_1_n_0}] [get_cells -filter { PRIMITIVE_GROUP != I/O && IS_PRIMITIVE==1 && PRIMITIVE_LEVEL !=INTERNAL } -of_object [get_pins -filter {DIRECTION==IN} -of_objects [get_nets -hierarchical -filter {PARENT=="nolabel_line42/buffer_reg[15]_LDC_i_1_n_0"}]]]
resize_pblock [get_pblocks {CLKAG_nolabel_line42/buffer_reg[15]_LDC_i_1_n_0}] -add {CLOCKREGION_X0Y0:CLOCKREGION_X0Y0}
#endgroup

# Clock net "nolabel_line42/buffer_reg[16]_LDC_i_1_n_0" driven by instance "nolabel_line42/buffer_reg[16]_LDC_i_1" located at site "SLICE_X1Y20"
#startgroup
create_pblock {CLKAG_nolabel_line42/buffer_reg[16]_LDC_i_1_n_0}
add_cells_to_pblock [get_pblocks  {CLKAG_nolabel_line42/buffer_reg[16]_LDC_i_1_n_0}] [get_cells -filter { PRIMITIVE_GROUP != I/O && IS_PRIMITIVE==1 && PRIMITIVE_LEVEL !=INTERNAL } -of_object [get_pins -filter {DIRECTION==IN} -of_objects [get_nets -hierarchical -filter {PARENT=="nolabel_line42/buffer_reg[16]_LDC_i_1_n_0"}]]]
resize_pblock [get_pblocks {CLKAG_nolabel_line42/buffer_reg[16]_LDC_i_1_n_0}] -add {CLOCKREGION_X0Y0:CLOCKREGION_X0Y0}
#endgroup

# Clock net "nolabel_line42/buffer_reg[17]_LDC_i_1_n_0" driven by instance "nolabel_line42/buffer_reg[17]_LDC_i_1" located at site "SLICE_X0Y20"
#startgroup
create_pblock {CLKAG_nolabel_line42/buffer_reg[17]_LDC_i_1_n_0}
add_cells_to_pblock [get_pblocks  {CLKAG_nolabel_line42/buffer_reg[17]_LDC_i_1_n_0}] [get_cells -filter { PRIMITIVE_GROUP != I/O && IS_PRIMITIVE==1 && PRIMITIVE_LEVEL !=INTERNAL } -of_object [get_pins -filter {DIRECTION==IN} -of_objects [get_nets -hierarchical -filter {PARENT=="nolabel_line42/buffer_reg[17]_LDC_i_1_n_0"}]]]
resize_pblock [get_pblocks {CLKAG_nolabel_line42/buffer_reg[17]_LDC_i_1_n_0}] -add {CLOCKREGION_X0Y0:CLOCKREGION_X0Y0}
#endgroup
