Design Route Status
                                               :      # nets :
   ------------------------------------------- : ----------- :
   # of logical nets.......................... :         336 :
       # of nets not needing routing.......... :         167 :
           # of internally routed nets........ :         162 :
           # of nets with no loads............ :           5 :
       # of routable nets..................... :         169 :
           # of fully routed nets............. :         169 :
       # of nets with routing errors.......... :           0 :
   ------------------------------------------- : ----------- :

